## Interface: 11306
## Version: 0.4.1
## Title: HealOrder
## Author: luc2
## SavedVariables: HealOrderDB
## OptionalDeps: Ace3
## X-Embeds: Ace3

embeds.xml
enUS.lua
frFR.lua
Cartable.lua
HealerTableWidget.lua
Options.lua
MainFrame.lua
Main.lua
